c:\Users\tin\Desktop\OOOOP\lab8\week8\src\main\java\com\lab8\week8\TesttreeTest.java
c:\Users\tin\Desktop\OOOOP\lab8\week8\src\main\java\com\lab8\week8\RectangleShape.java
c:\Users\tin\Desktop\OOOOP\lab8\week8\src\main\java\com\lab8\week8\TriangleShape.java
c:\Users\tin\Desktop\OOOOP\lab8\week8\src\main\java\com\lab8\week8\CircleShape.java
c:\Users\tin\Desktop\OOOOP\lab8\week8\src\main\java\com\lab8\week8\TestShape.java
c:\Users\tin\Desktop\OOOOP\lab8\week8\src\main\java\com\lab8\week8\TestTree.java
